…
    results = map(regression, broom::tidy)
  ) %>% 
  select(-data, -regression) %>% 
  unnest(results) %>% 
  filter(term == "victim_sexMale") %>% 
  mutate(
    OR = exp(estimate),
    lower_ci = exp(estimate - 1.96 * std.error),
    upper_ci = exp(estimate + 1.96 * std.error)
  ) %>% 
  select(city_state,OR, lower_ci,upper_ci ) 
homicide_or
```

    ## # A tibble: 47 × 4
    ## # Groups:   city_state [47]
    ##    city_state        OR lower_ci upper_ci
    ##    <chr>          <dbl>    <dbl>    <dbl>
    ##  1 Albuquerque,NM 1.77     0.831    3.76 
    ##  2 Atlanta,GA     1.00     0.684    1.46 
    ##  3 Baltimore,MD   0.426    0.325    0.558
    ##  4 Baton Rouge,LA 0.381    0.209    0.695
    ##  5 Birmingham,AL  0.870    0.574    1.32 
    ##  6 Boston,MA      0.674    0.356    1.28 
    ##  7 Buffalo,NY     0.521    0.290    0.935
    ##  8 Charlotte,NC   0.884    0.557    1.40 
    ##  9 Chicago,IL     0.410    0.336    0.501
    ## 10 Cincinnati,OH  0.400    0.236    0.677
    ## # … with 37 more rows
…
